…
```
## [1] "Governor"                      "Lieutenant Governor"          
## [3] "US President & Vice President"
```


```r
# subset the data to relevant races
(king_rel_races <- king %>%
    filter(Race %in% rel_races))
```

```
## # A tibble: 65,442 x 9
##    Precinct Race    LEG    CC    CG CounterGroup Party CounterType
##    <chr>    <chr> <dbl> <dbl> <dbl> <chr>        <chr> <chr>      
##  1 ADAIR    Gove…    45     3     1 Total        Dem   Jay Inslee 
##  2 ADAIR    Gove…    45     3     1 Total        NP    Registered…
##  3 ADAIR    Gove…    45     3     1 Total        NP    Times Blan…
##  4 ADAIR    Gove…    45     3     1 Total        NP    Times Coun…
##  5 ADAIR    Gove…    45     3     1 Total        NP    Times Over…
##  6 ADAIR    Gove…    45     3     1 Total        NP    Write-In   
##  7 ADAIR    Gove…    45     3     1 Total        Rep   Bill Bryant
##  8 ADAIR    Lieu…    45     3     1 Total        Dem   Cyrus Habib
##  9 ADAIR    Lieu…    45     3     1 Total        NP    Registered…
## 10 ADAIR    Lieu…    45     3     1 Total        NP    Times Blan…
## # … with 65,432 more rows, and 1 more variable: SumOfCount <dbl>
```
…
> We want to determine which precincts are in Seattle and which are not. You will probably want to look at values of the `Precinct` variable and see if you can figure out what uniquely identifies Seattle precincts. You will then want to create a binary variable that identifies Seattle tracts (for instance, with values `"Seattle"` and `"Not Seattle"`). Hint: You can use `substr()` to grab a number of characters---a sub-string---from text (say, to test if they equal something); if you use this with `ifelse()` inside `mutate()` you can make a new variable based on whether the sub-string of `Precinct` equals a value.



```r
# [YOUR CODE HERE]
(precincts <- king_rel_races %>%
    select(Precinct) %>%
    distinct(Precinct) %>%
    arrange(Precinct))
```

```
## # A tibble: 2,517 x 1
##    Precinct     
##    <chr>        
##  1 ADAIR        
##  2 ALDARRA      
##  3 ALDER SPRINGS
##  4 ALDERWOOD    
##  5 ALG 30-0013  
##  6 ALG 30-0014  
##  7 ALG 30-3141  
##  8 ALPINE       
##  9 AMES LAKE    
## 10 ANGEL CITY   
## # … with 2,507 more rows
```
…
```
## # A tibble: 7,543 x 7
## # Groups:   Precinct, Race [7,543]
##    Precinct   Race          Party SumOfCount Demvotes Totalvotes Demsupport
##    <chr>      <chr>         <chr>      <dbl>    <dbl>      <dbl>      <dbl>
##  1 ADAIR      Governor      Dem          256      256        481      0.532
##  2 ADAIR      Lieutenant G… Dem          258      258        473      0.545
##  3 ADAIR      US President… DPN          266      266        473      0.562
##  4 ALDARRA    Governor      Dem          290      290        603      0.481
##  5 ALDARRA    Lieutenant G… Dem          301      301        580      0.519
##  6 ALDARRA    US President… DPN          334      334        612      0.546
##  7 ALDER SPR… Governor      Dem          206      206        450      0.458
##  8 ALDER SPR… Lieutenant G… Dem          215      215        429      0.501
##  9 ALDER SPR… US President… DPN          235      235        465      0.505
## 10 ALDERWOOD  Governor      Dem          201      201        387      0.519
## # … with 7,533 more rows
```

## Combining it all

> Once you've calculated democratic voting percentages for *each race* you'll want to put them back together with the precinct turnout rate data using a **join**. Then you will want to make sure your data are shaped as I recommend above: One row per precincts, with columns for each of the relevant measures. If your data are in a format where you have a row for each race within each precinct ("long format"), you may find the `spread()` command useful for turning multiple rows for each precinct into single precinct rows with different columns for each race.


```r
# [YOUR CODE HERE]
(spreadvotes = votesbyparty %>%
  select(Precinct,Race,Demsupport) %>%
  spread(key= Race, value = Demsupport))
```

```
## # A tibble: 2,515 x 4
## # Groups:   Precinct [2,515]
##    Precinct      Governor `Lieutenant Governo… `US President & Vice Presid…
##    <chr>            <dbl>                <dbl>                        <dbl>
##  1 ADAIR            0.532                0.545                        0.562
##  2 ALDARRA          0.481                0.519                        0.546
##  3 ALDER SPRINGS    0.458                0.501                        0.505
##  4 ALDERWOOD        0.519                0.564                        0.611
##  5 ALG 30-0013      0.557                0.539                        0.470
##  6 ALG 30-0014      0.602                0.551                        0.504
##  7 ALG 30-3141      0.439                0.428                        0.439
##  8 ALPINE           0.483                0.496                        0.527
##  9 AMES LAKE        0.522                0.581                        0.577
## 10 ANGEL CITY       0.795                0.798                        0.782
## # … with 2,505 more rows
```
…
```
## Joining, by = "Precinct"
```

```r
names(final)[6]<-"Registered"
names(final)[4]<-"President"
names(final)[3]<-"LT"
final
```

```
## # A tibble: 2,515 x 8
## # Groups:   Precinct [2,515]
##    Precinct Governor    LT President Location Registered `Times Counted`
##    <chr>       <dbl> <dbl>     <dbl> <chr>         <dbl>           <dbl>
##  1 ADAIR       0.532 0.545     0.562 Not Sea…        519             485
##  2 ALDARRA     0.481 0.519     0.546 Not Sea…        763             625
##  3 ALDER S…    0.458 0.501     0.505 Not Sea…        557             476
##  4 ALDERWO…    0.519 0.564     0.611 Not Sea…        472             404
##  5 ALG 30-…    0.557 0.539     0.470 Not Sea…        497             319
##  6 ALG 30-…    0.602 0.551     0.504 Not Sea…        525             364
##  7 ALG 30-…    0.439 0.428     0.439 Not Sea…        551             364
##  8 ALPINE      0.483 0.496     0.527 Not Sea…        629             513
##  9 AMES LA…    0.522 0.581     0.577 Not Sea…        865             726
## 10 ANGEL C…    0.795 0.798     0.782 Not Sea…        779             546
## # … with 2,505 more rows, and 1 more variable: Turnout <dbl>
```
…
> **Do not** *label* the precincts on the horizontal axis (you will probably have to search to figure out how). You should, however, *arrange them on the axis in order from smallest to largest* in terms of support for the Democratic candidate for president --- that is, the line plotting percentage support for Obama should be smoothly increasing from left to right. The order of the lines in the legend should follow the order of the lines at the right edge of the plot.

> To do this, we need to use the "wide" version of the data (one row per precinct), and order `Precinct` based on Democratic support for the Presidential race (Hint: You will probably want to use `fct_reorder()` on `Precinct`). Then we can reshape back from "wide" to "tidy" form using `gather()` so that we have one variable giving the race---and another giving vote percentage---and can plot a separate line for each race.


```r
# [YOUR CODE HERE]
final2 = final %>% 
  filter(Registered > 500)
final2
```

```
## # A tibble: 1,188 x 8
## # Groups:   Precinct [1,188]
##    Precinct Governor    LT President Location Registered `Times Counted`
##    <chr>       <dbl> <dbl>     <dbl> <chr>         <dbl>           <dbl>
##  1 ADAIR       0.532 0.545     0.562 Not Sea…        519             485
##  2 ALDARRA     0.481 0.519     0.546 Not Sea…        763             625
##  3 ALDER S…    0.458 0.501     0.505 Not Sea…        557             476
##  4 ALG 30-…    0.602 0.551     0.504 Not Sea…        525             364
##  5 ALG 30-…    0.439 0.428     0.439 Not Sea…        551             364
##  6 ALPINE      0.483 0.496     0.527 Not Sea…        629             513
##  7 AMES LA…    0.522 0.581     0.577 Not Sea…        865             726
##  8 ANGEL C…    0.795 0.798     0.782 Not Sea…        779             546
##  9 ANGELO      0.453 0.458     0.448 Not Sea…        501             392
## 10 ARTHUR      0.405 0.426     0.425 Not Sea…        901             739
## # … with 1,178 more rows, and 1 more variable: Turnout <dbl>
```
…
